<?xml version="1.0" encoding="UTF-8" standalone="no"?>
<!-- Created with Inkscape (http://www.inkscape.org/) -->

<svg
   width="55.303375mm"
   height="55.302856mm"
   viewBox="0 0 55.303375 55.302856"
   version="1.1"
   id="svg5"
   xmlns:xlink="http://www.w3.org/1999/xlink"
   xmlns="http://www.w3.org/2000/svg"
   xmlns:svg="http://www.w3.org/2000/svg">
  <defs
     id="defs2">
    <linearGradient
       id="linearGradient43623">
      <stop
         style="stop-color:#000000;stop-opacity:1;"
         offset="0"
         id="stop43621" />
    </linearGradient>
    <rect
       x="170.03578"
       y="464.22159"
       width="208.96359"
       height="130.6209"
       id="rect36421" />
    <rect
       x="462.17371"
       y="475.05328"
       width="153.23827"
       height="107.8848"
       id="rect19883" />
    <rect
       x="462.17371"
       y="475.05328"
       width="153.23827"
       height="107.8848"
       id="rect17105" />
    <rect
       x="481.32797"
       y="488.53769"
       width="114.92969"
       height="80.914055"
       id="rect12413" />
    <linearGradient
       xlink:href="#linearGradient43623"
       id="linearGradient43625"
       x1="49.098183"
       y1="132.26022"
       x2="91.272751"
       y2="132.26022"
       gradientUnits="userSpaceOnUse" />
  </defs>
  <g
     id="layer1"
     transform="translate(-0.00223283,-0.05345684)" />
  <g
     id="layer2"
     transform="translate(-0.00223283,-0.05345684)">
    <text
       xml:space="preserve"
       transform="scale(0.26458333)"
       id="text12411"
       style="font-style:normal;font-weight:normal;font-size:40px;line-height:1.25;font-family:sans-serif;white-space:pre;shape-inside:url(#rect12413);fill:#000000;fill-opacity:1;stroke:none" />
    <text
       xml:space="preserve"
       transform="scale(0.26458333)"
       id="text17103"
       style="font-style:normal;font-weight:normal;font-size:40px;line-height:1.25;font-family:sans-serif;white-space:pre;shape-inside:url(#rect17105);fill:#000000;fill-opacity:1;stroke:none" />
    <text
       xml:space="preserve"
       transform="scale(0.26458333)"
       id="text19881"
       style="font-style:normal;font-weight:normal;font-size:40px;line-height:1.25;font-family:sans-serif;white-space:pre;shape-inside:url(#rect19883);fill:#000000;fill-opacity:1;stroke:none" />
    <text
       xml:space="preserve"
       transform="scale(0.26458333)"
       id="text36419"
       style="font-style:normal;font-weight:normal;font-size:40px;line-height:1.25;font-family:sans-serif;white-space:pre;shape-inside:url(#rect36421);fill:#000000;fill-opacity:1;stroke:none" />
    <text
       xml:space="preserve"
       style="font-style:normal;font-weight:normal;font-size:10.5833px;line-height:1.25;font-family:sans-serif;fill:#000000;fill-opacity:1;stroke:none;stroke-width:0.264583"
       x="84.693626"
       y="141.52934"
       id="text36625"><tspan
         id="tspan36623"
         style="stroke-width:0.264583"
         x="84.693626"
         y="141.52934"></tspan></text>
    <g
       id="g45339"
       transform="translate(-25.505098,-2.17687)">
      <g
         id="g44506"
         transform="translate(-89.396586,-110.08169)">
        <path
           id="path4455"
           style="fill:#14003a;fill-opacity:1;fill-rule:evenodd;stroke-width:0.264583"
           d="m 143.53022,112.31216 c -0.48829,-0.0172 -2.51437,1.51687 -5.27978,3.85764 -3.41079,-1.22342 -5.84595,-1.94993 -6.29729,-1.76268 -0.42831,0.17769 -1.5475,2.2361 -2.97811,5.24412 -3.3263,0.17247 -5.65624,0.41987 -5.98413,0.74776 -0.30393,0.30393 -0.53707,2.35351 -0.70745,5.29218 -2.70935,1.15151 -4.56025,2.06289 -4.7439,2.45154 -0.20226,0.42804 0.37259,2.77953 1.36994,6.07611 -2.39858,2.47143 -3.98877,4.29713 -4.00544,4.77025 -0.0172,0.48831 1.51672,2.51473 3.85765,5.2803 -1.22328,3.41044 -1.94993,5.84546 -1.76269,6.29677 0.17769,0.4283 2.23633,1.5476 5.24413,2.97812 0.17246,3.32607 0.41988,5.65574 0.74776,5.98361 0.30394,0.30394 2.35388,0.53706 5.2927,0.70745 1.15154,2.70947 2.06236,4.56076 2.45101,4.74441 0.42802,0.20225 2.77977,-0.37267 6.07612,-1.36994 2.47143,2.39858 4.29765,3.98825 4.77076,4.00493 0.48832,0.0172 2.5142,-1.5162 5.27978,-3.85713 3.41045,1.22328 5.84547,1.94939 6.29678,1.76216 0.42832,-0.1777 1.5475,-2.2361 2.97811,-5.24412 3.3263,-0.17246 5.65624,-0.41987 5.98413,-0.74776 0.30393,-0.30393 0.53707,-2.35349 0.70745,-5.29218 2.70935,-1.1515 4.56077,-2.06238 4.74442,-2.45102 0.20225,-0.42802 -0.37319,-2.77976 -1.37046,-6.07611 2.39872,-2.47156 3.98876,-4.29764 4.00544,-4.77077 0.0172,-0.48831 -1.51672,-2.51472 -3.85765,-5.2803 1.22317,-3.41018 1.9499,-5.84548 1.76268,-6.29677 -0.17769,-0.42829 -2.23632,-1.54759 -5.24412,-2.97811 -0.17246,-3.32607 -0.41988,-5.65575 -0.74776,-5.98362 -0.30394,-0.30394 -2.35387,-0.53706 -5.2927,-0.70745 -1.15154,-2.70948 -2.06236,-4.56075 -2.45101,-4.74441 -0.42802,-0.20225 -2.77978,0.37267 -6.07612,1.36994 -2.47143,-2.39859 -4.29713,-3.98825 -4.77025,-4.00492 z m -0.24339,6.91275 c 0.35484,0.0125 1.72398,1.2045 3.57755,3.00344 2.47227,-0.74795 4.23582,-1.17902 4.55683,-1.02733 0.29149,0.13774 0.975,1.52633 1.83865,3.55844 2.20412,0.12779 3.74131,0.30276 3.96927,0.53072 0.24591,0.2459 0.43134,1.99302 0.56069,4.48758 2.25585,1.07289 3.79983,1.91223 3.93309,2.23345 0.14042,0.33847 -0.40451,2.16508 -1.32188,4.72271 1.75569,2.07419 2.90626,3.59374 2.89336,3.95997 -0.0125,0.35485 -1.20491,1.7244 -3.00395,3.57807 0.74796,2.47226 1.17953,4.23633 1.02784,4.55735 -0.13774,0.29148 -1.52642,0.9745 -3.55844,1.83813 -0.12778,2.20401 -0.30277,3.74132 -0.53071,3.96926 -0.24592,0.24593 -1.99338,0.43135 -4.4881,0.5607 -1.07296,2.25601 -1.91222,3.79981 -2.23345,3.93309 -0.3385,0.14042 -2.16489,-0.40391 -4.72271,-1.32137 -2.07419,1.7557 -3.59373,2.90575 -3.95997,2.89285 -0.35484,-0.0125 -1.7245,-1.20502 -3.57808,-3.00395 -2.47227,0.74795 -4.23582,1.17902 -4.55682,1.02732 -0.29149,-0.13772 -0.97448,-1.52582 -1.83813,-3.55792 -2.20412,-0.1278 -3.74183,-0.30275 -3.96979,-0.53072 -0.24591,-0.24589 -0.43134,-1.99301 -0.56069,-4.48758 -2.25585,-1.07289 -3.79983,-1.91274 -3.93309,-2.23397 -0.14043,-0.33848 0.40442,-2.16436 1.32188,-4.72219 -1.75569,-2.07418 -2.90626,-3.59425 -2.89336,-3.96048 0.0125,-0.35484 1.20553,-1.72399 3.00447,-3.57756 -0.74802,-2.47243 -1.17954,-4.23632 -1.02785,-4.55735 0.13774,-0.29148 1.52591,-0.97501 3.55792,-1.83864 0.12778,-2.20401 0.30278,-3.7408 0.53072,-3.96875 0.24592,-0.24592 1.99338,-0.43187 4.4881,-0.56121 1.07296,-2.25602 1.91222,-3.79982 2.23346,-3.93309 0.33851,-0.14044 2.16513,0.40483 4.72322,1.3224 2.07406,-1.75558 3.59375,-2.90627 3.95997,-2.89337 z" />
        <a
           id="a44498">
          <text
             xml:space="preserve"
             style="font-style:normal;font-variant:normal;font-weight:bold;font-stretch:normal;font-size:25.4px;line-height:1.25;font-family:'URW Gothic';-inkscape-font-specification:'URW Gothic Bold';fill:#850026;fill-opacity:1;stroke:#ffffff;stroke-width:1.32292;stroke-linecap:round;stroke-linejoin:round;stroke-miterlimit:4;stroke-dasharray:none;stroke-opacity:1;paint-order:stroke fill markers"
             x="120.75104"
             y="149.35951"
             id="text39767"><tspan
               id="tspan39765"
               style="font-style:normal;font-variant:normal;font-weight:bold;font-stretch:normal;font-size:25.4px;font-family:'URW Gothic';-inkscape-font-specification:'URW Gothic Bold';fill:#850026;fill-opacity:1;stroke:#ffffff;stroke-width:1.32292;stroke-linecap:round;stroke-linejoin:round;stroke-miterlimit:4;stroke-dasharray:none;stroke-opacity:1;paint-order:stroke fill markers"
               x="120.75104"
               y="149.35951">MG</tspan></text>
        </a>
      </g>
      <g
         id="g45330">
        <path
           style="fill:#ffffff;fill-opacity:1;stroke:#ffffff;stroke-width:0.811069;stroke-linecap:round;stroke-linejoin:round;stroke-miterlimit:4;stroke-dasharray:none;stroke-opacity:1;paint-order:stroke fill markers"
           d="m 197.00869,190.69403 c -1.57889,-0.91868 -5.0672,-3.90975 -9.65172,-8.2759 -2.38329,-2.26977 -2.72096,-2.53625 -3.08206,-2.43221 -0.22305,0.0643 -1.94722,0.56145 -3.83151,1.10488 -5.86081,1.69025 -10.5998,2.77679 -12.11666,2.77806 -0.34044,3.2e-4 -0.76496,-0.0776 -0.94339,-0.17311 -0.76688,-0.41042 -3.21091,-4.99827 -5.56765,-10.45138 -0.61693,-1.42748 -1.19015,-2.68667 -1.27382,-2.79819 -0.0845,-0.11264 -0.49624,-0.20277 -0.92628,-0.20277 -2.3106,0 -9.85316,-0.76479 -12.00336,-1.21709 -1.99889,-0.42048 -2.27046,-0.64612 -2.6841,-2.23014 -0.34682,-1.32813 -0.83564,-5.47907 -1.12225,-9.52987 -0.14202,-2.0074 -0.29757,-4.17071 -0.34565,-4.80737 l -0.0874,-1.15756 -1.56948,-0.72466 -1.56948,-0.72466 -0.45112,0.37551 c -0.24812,0.20652 -0.7226,0.45089 -1.05439,0.54304 -0.8661,0.24054 -13.60344,0.22691 -14.32668,-0.0153 -0.30327,-0.10157 -0.72258,-0.33881 -0.9318,-0.52719 -0.89227,-0.80342 -0.83621,1.69705 -0.83621,-37.29522 V 76.856225 l 0.36498,-0.536269 c 0.20074,-0.294947 0.57095,-0.688972 0.82268,-0.875611 0.44327,-0.328642 0.67604,-0.341901 7.38073,-0.42045 l 6.92303,-0.08111 2.6994,-1.200831 2.69939,-1.200834 0.10895,-1.719015 c 0.46467,-7.33172 1.19073,-12.414119 1.8946,-13.262236 0.58959,-0.710412 5.28927,-1.382678 13.33487,-1.907487 1.9484,-0.127093 3.56761,-0.256136 3.59823,-0.286763 0.0306,-0.03063 1.0402,-2.025464 2.2435,-4.43297 3.45003,-6.902668 5.35932,-10.031741 6.32929,-10.372864 0.9511,-0.334482 5.24795,0.785162 12.51165,3.260202 2.49809,0.851202 4.70283,1.585504 4.89942,1.631782 0.28046,0.06602 0.94417,-0.401546 3.08206,-2.171242 7.27809,-6.024631 11.31257,-8.827901 12.33562,-8.571132 0.65657,0.164789 1.95197,1.06454 4.0622,2.821503 2.07081,1.724145 2.78114,2.366987 6.79028,6.14514 l 2.45774,2.316135 3.63129,-1.046148 c 7.8738,-2.268383 12.48654,-3.24366 13.45134,-2.844031 0.62731,0.259842 1.60421,1.765037 3.10089,4.777799 0.86927,1.749831 3.55343,7.643003 3.92749,8.622981 0.005,0.01411 1.61571,0.143994 3.57849,0.28864 5.91068,0.435583 9.58995,0.933307 10.89811,1.47427 0.28403,0.117456 0.62187,0.420047 0.75075,0.672424 0.60994,1.194406 1.21439,5.754545 1.6627,12.543797 0.14434,2.185831 0.27413,3.985983 0.28842,4.000337 0.0143,0.01436 2.14287,1.086121 4.73019,2.381703 5.19542,2.601582 8.48982,4.489972 9.48568,5.437312 0.60198,0.572654 0.65268,0.687693 0.65268,1.481056 0,0.857386 0.004,0.864699 1.34487,2.255556 3.26415,3.386731 6.02707,7.659422 7.23723,11.191943 0.52725,1.539073 0.11896,2.685049 -1.16417,3.267528 -0.6356,0.28852 -1.11866,0.31169 -6.56798,0.31499 l -5.88192,0.004 2.3212,2.79819 c 1.27666,1.539 2.93361,3.5829 3.68211,4.54199 l 1.36091,1.74379 4.22749,6.5e-4 c 3.93223,4.9e-4 4.2644,0.0231 4.75615,0.32295 1.01419,0.61836 1.17329,1.10845 1.17397,3.61653 0.002,6.19309 -1.39135,11.83882 -4.30147,17.43324 -2.16173,4.1557 -5.40904,8.36092 -8.48762,10.99133 l -1.32545,1.1325 0.099,1.37882 c 0.0902,1.25662 0.0675,1.41862 -0.2562,1.82793 -0.71149,0.8997 -4.57224,2.93459 -10.38412,5.47314 l -2.83874,1.23993 -0.27263,3.71853 c -0.42628,5.81433 -0.93507,9.50085 -1.49681,10.84526 -0.20329,0.48655 -0.36548,0.59852 -1.27295,0.87881 -1.85586,0.57321 -6.34525,1.09857 -12.77346,1.49477 -1.93496,0.11926 -3.18857,0.26272 -3.22859,0.36946 -0.036,0.096 -1.13449,2.29431 -2.44113,4.88519 -2.64593,5.24654 -4.26464,8.05845 -5.26143,9.13984 l -0.66599,0.72252 -1.21718,-0.096 c -1.66791,-0.13164 -5.14054,-1.10524 -11.19332,-3.13824 -2.81036,-0.94394 -5.19395,-1.72502 -5.29687,-1.73573 -0.10293,-0.0107 -1.52635,1.08232 -3.16317,2.42896 -6.83838,5.62608 -10.6992,8.34199 -11.85185,8.33725 -0.20371,-8.1e-4 -0.73536,-0.21388 -1.18145,-0.47344 z m 52.73649,-41.05665 c 5.17339,-0.41325 9.18909,-1.48761 13.62888,-3.64627 7.2658,-3.53269 12.94396,-9.26881 16.53788,-16.70669 2.34278,-4.84854 3.35406,-8.95669 3.58386,-14.55869 l 0.1048,-2.55487 h -23.3031 -23.3031 v 6.24523 6.24524 h 14.59925 c 8.02958,0 14.59924,0.0613 14.59924,0.13632 0,0.22319 -1.57036,2.76756 -2.25866,3.65958 -1.83843,2.38257 -4.81319,4.78461 -7.55528,6.10069 -8.19599,3.93372 -18.54607,2.92936 -25.82681,-2.50619 -7.68404,-5.73664 -11.0429,-15.44434 -8.64716,-24.9919 1.37348,-5.47367 4.26822,-10.207263 8.03312,-13.136115 5.85183,-4.552344 13.91369,-6.04359 21.73665,-4.020747 4.65948,1.204835 8.47389,3.570808 11.48201,7.121964 l 1.15013,1.357754 h 7.75598 c 4.95461,0 7.75598,-0.05739 7.75598,-0.158898 0,-0.08739 -0.31642,-0.872103 -0.70315,-1.743798 -1.76317,-3.974143 -4.64054,-7.749854 -8.27218,-10.854814 -5.82335,-4.978818 -12.7493,-8.009496 -20.95312,-9.168733 -2.18168,-0.308281 -7.85757,-0.261317 -10.13836,0.08389 -7.00935,1.060883 -13.36566,3.788579 -18.55543,7.962731 -6.22802,5.00922 -10.86902,12.454815 -12.5847,20.189696 -0.81576,3.67774 -1.08968,8.83179 -0.6604,12.42562 1.09529,9.16932 5.40747,17.34972 12.2471,23.23327 7.89792,6.79391 18.60721,10.15956 29.54657,9.28573 z m -111.53062,-27.53092 0.008,-26.400302 0.60623,1.703245 c 0.33344,0.936785 4.4722,12.815677 9.19726,26.397547 l 8.59102,24.6943 5.45546,0.003 5.45546,0.003 0.56275,-1.58159 c 0.30952,-0.86987 4.42422,-12.67225 9.14379,-26.22751 l 8.58103,-24.645943 0.041,26.227513 0.0411,26.22752 h 6.65027 6.65028 V 112.98058 77.454402 l -9.10399,0.0419 -9.10399,0.0419 -1.25491,3.568704 c -0.69021,1.962787 -4.88603,13.897669 -9.32406,26.521954 -4.43802,12.6243 -8.11831,23.00634 -8.17842,23.07121 -0.0601,0.0649 -4.37642,-11.88827 -9.59181,-26.56252 l -9.48254,-26.680455 h -9.1271 -9.12711 v 35.524825 35.52483 h 6.65076 6.65077 z"
           id="path45210"
           transform="scale(0.26458333)" />
      </g>
    </g>
  </g>
</svg>
